stat4990_pj
…
We see the plot are quite similar to each other. Note, visa accounts for
4% of dow jones index.

Exploration

# normalize 2 closing prices using minmaxscaler 
data <- data %>% # for dji 
  mutate(normalize.close.dji = (Close_dji - min(Close_dji)) / (max(Close_dji) - min(Close_dji)))
data <- data %>% # for visa 
  mutate(normalize.close.visa = (Close_visa - min(Close_visa)) / (max(Close_visa) - min(Close_visa)))

data 

## # A tsibble: 794 x 6 [1]
##      day Date       Close_dji Close_visa normalize.close.dji
##    <int> <date>         <dbl>      <dbl>               <dbl>
##  1     1 2020-10-01    27817.       203.               0.128
##  2     2 2020-10-02    27683.       201.               0.115
##  3     3 2020-10-05    28149.       204.               0.160
##  4     4 2020-10-06    27773.       200.               0.123
##  5     5 2020-10-07    28303.       202.               0.175
##  6     6 2020-10-08    28426.       203.               0.187
##  7     7 2020-10-09    28587.       207.               0.202
##  8     8 2020-10-12    28838.       206.               0.227
##  9     9 2020-10-13    28680.       204.               0.212
## 10    10 2020-10-14    28514        202.               0.195
## #  784 more rows
## #  1 more variable: normalize.close.visa <dbl>
…
